{
    "_id": "berniesanders/pick-a-number-1-200",
    "abs_rshares": 86973406751,
    "active": {
        "$date": {
            "$numberLong": "1561086873000"
        }
    },
    "active_votes": [
        {
            "percent": 10000,
            "reputation": "35485905898903",
            "rshares": 42495205188,
            "time": {
                "$date": {
                    "$numberLong": "1561086879000"
                }
            },
            "voter": "sinzzer",
            "weight": 1065
        },
        {
            "percent": 10000,
            "reputation": "3773610796661",
            "rshares": 1832981019,
            "time": {
                "$date": {
                    "$numberLong": "1561086876000"
                }
            },
            "voter": "alainite",
            "weight": 87
        },
        {
            "percent": 10000,
            "reputation": "8708897172164",
            "rshares": 12627870220,
            "time": {
                "$date": {
                    "$numberLong": "1561086885000"
                }
            },
            "voter": "joshuaetim",
            "weight": 321
        },
        {
            "percent": 100,
            "reputation": "905861898362052",
            "rshares": 3783477081,
            "time": {
                "$date": {
                    "$numberLong": "1561086882000"
                }
            },
            "voter": "angelinafx",
            "weight": 72
        },
        {
            "percent": 5000,
            "reputation": "1364331781529",
            "rshares": 12925252081,
            "time": {
                "$date": {
                    "$numberLong": "1561086888000"
                }
            },
            "voter": "littleboys-faiz",
            "weight": 410
        },
        {
            "percent": 10000,
            "reputation": 1645758643,
            "rshares": 544335286,
            "time": {
                "$date": {
                    "$numberLong": "1561086876000"
                }
            },
            "voter": "kingwazza",
            "weight": 82
        },
        {
            "percent": 10000,
            "reputation": "25167381987",
            "rshares": 108006562,
            "time": {
                "$date": {
                    "$numberLong": "1561086876000"
                }
            },
            "voter": "tutchpa",
            "weight": 2
        },
        {
            "percent": 300,
            "reputation": "20183377050659",
            "rshares": 315855519,
            "time": {
                "$date": {
                    "$numberLong": "1561086885000"
                }
            },
            "voter": "cryptouno",
            "weight": 8
        },
        {
            "percent": 10000,
            "reputation": 402838349,
            "rshares": 548335418,
            "time": {
                "$date": {
                    "$numberLong": "1561086876000"
                }
            },
            "voter": "anothermeme",
            "weight": 13
        },
        {
            "percent": 10000,
            "reputation": 1834884499,
            "rshares": 481936181,
            "time": {
                "$date": {
                    "$numberLong": "1561086897000"
                }
            },
            "voter": "thesociallyviral",
            "weight": 24
        },
        {
            "percent": 10000,
            "reputation": 552265133,
            "rshares": 540907614,
            "time": {
                "$date": {
                    "$numberLong": "1561086879000"
                }
            },
            "voter": "gameseditdaily",
            "weight": 6
        },
        {
            "percent": 10000,
            "reputation": 0,
            "rshares": 370938382,
            "time": {
                "$date": {
                    "$numberLong": "1561086879000"
                }
            },
            "voter": "zyubs81",
            "weight": 18
        },
        {
            "percent": 10000,
            "reputation": 0,
            "rshares": 548840232,
            "time": {
                "$date": {
                    "$numberLong": "1561086888000"
                }
            },
            "voter": "shegay",
            "weight": 17
        },
        {
            "percent": 10000,
            "reputation": 0,
            "rshares": 335040167,
            "time": {
                "$date": {
                    "$numberLong": "1561086897000"
                }
            },
            "voter": "truemonster",
            "weight": 17
        },
        {
            "percent": 10000,
            "reputation": 0,
            "rshares": 425709618,
            "time": {
                "$date": {
                    "$numberLong": "1561086888000"
                }
            },
            "voter": "sitdownkid",
            "weight": 13
        },
        {
            "percent": 10000,
            "reputation": 0,
            "rshares": 409822199,
            "time": {
                "$date": {
                    "$numberLong": "1561086888000"
                }
            },
            "voter": "mysterydude",
            "weight": 13
        },
        {
            "percent": 10000,
            "reputation": 0,
            "rshares": 406106243,
            "time": {
                "$date": {
                    "$numberLong": "1561086888000"
                }
            },
            "voter": "knowyourrole",
            "weight": 12
        },
        {
            "percent": 10000,
            "reputation": 0,
            "rshares": 389648310,
            "time": {
                "$date": {
                    "$numberLong": "1561086888000"
                }
            },
            "voter": "mysterychick",
            "weight": 12
        },
        {
            "percent": 10000,
            "reputation": 0,
            "rshares": 289821036,
            "time": {
                "$date": {
                    "$numberLong": "1561086888000"
                }
            },
            "voter": "fuckdis",
            "weight": 9
        },
        {
            "percent": 10000,
            "reputation": 0,
            "rshares": 348260268,
            "time": {
                "$date": {
                    "$numberLong": "1561086891000"
                }
            },
            "voter": "theonly",
            "weight": 13
        },
        {
            "percent": 10000,
            "reputation": 0,
            "rshares": 220122512,
            "time": {
                "$date": {
                    "$numberLong": "1561086891000"
                }
            },
            "voter": "fuckitmate",
            "weight": 8
        },
        {
            "percent": 10000,
            "reputation": 0,
            "rshares": 282267133,
            "time": {
                "$date": {
                    "$numberLong": "1561086891000"
                }
            },
            "voter": "uretard",
            "weight": 10
        },
        {
            "percent": 10000,
            "reputation": 0,
            "rshares": 349863393,
            "time": {
                "$date": {
                    "$numberLong": "1561086891000"
                }
            },
            "voter": "mysturee",
            "weight": 13
        },
        {
            "percent": 10000,
            "reputation": 0,
            "rshares": 336706999,
            "time": {
                "$date": {
                    "$numberLong": "1561086891000"
                }
            },
            "voter": "ragehamster",
            "weight": 12
        },
        {
            "percent": 10000,
            "reputation": 0,
            "rshares": 336217002,
            "time": {
                "$date": {
                    "$numberLong": "1561086891000"
                }
            },
            "voter": "thotiana",
            "weight": 12
        },
        {
            "percent": 10000,
            "reputation": 0,
            "rshares": 336216700,
            "time": {
                "$date": {
                    "$numberLong": "1561086891000"
                }
            },
            "voter": "sooperstoned",
            "weight": 12
        },
        {
            "percent": 10000,
            "reputation": 0,
            "rshares": 371107488,
            "time": {
                "$date": {
                    "$numberLong": "1561086891000"
                }
            },
            "voter": "demjooks",
            "weight": 14
        },
        {
            "percent": 10000,
            "reputation": 0,
            "rshares": 372468153,
            "time": {
                "$date": {
                    "$numberLong": "1561086891000"
                }
            },
            "voter": "dankestnug",
            "weight": 14
        },
        {
            "percent": 10000,
            "reputation": 0,
            "rshares": 372474037,
            "time": {
                "$date": {
                    "$numberLong": "1561086891000"
                }
            },
            "voter": "fiyabuds",
            "weight": 14
        },
        {
            "percent": 10000,
            "reputation": 0,
            "rshares": 337964516,
            "time": {
                "$date": {
                    "$numberLong": "1561086891000"
                }
            },
            "voter": "datstank",
            "weight": 12
        },
        {
            "percent": 10000,
            "reputation": 0,
            "rshares": 337964452,
            "time": {
                "$date": {
                    "$numberLong": "1561086891000"
                }
            },
            "voter": "blazeitdood",
            "weight": 12
        },
        {
            "percent": 10000,
            "reputation": 0,
            "rshares": 339318321,
            "time": {
                "$date": {
                    "$numberLong": "1561086891000"
                }
            },
            "voter": "sweeden",
            "weight": 12
        },
        {
            "percent": 10000,
            "reputation": 0,
            "rshares": 374373066,
            "time": {
                "$date": {
                    "$numberLong": "1561086891000"
                }
            },
            "voter": "cannuhbiss",
            "weight": 14
        },
        {
            "percent": 10000,
            "reputation": 0,
            "rshares": 339171494,
            "time": {
                "$date": {
                    "$numberLong": "1561086894000"
                }
            },
            "voter": "bestbuds",
            "weight": 15
        },
        {
            "percent": 10000,
            "reputation": 0,
            "rshares": 339170915,
            "time": {
                "$date": {
                    "$numberLong": "1561086894000"
                }
            },
            "voter": "danknugz",
            "weight": 15
        },
        {
            "percent": 10000,
            "reputation": 0,
            "rshares": 341872232,
            "time": {
                "$date": {
                    "$numberLong": "1561086894000"
                }
            },
            "voter": "trichomes",
            "weight": 15
        },
        {
            "percent": 10000,
            "reputation": 0,
            "rshares": 339163751,
            "time": {
                "$date": {
                    "$numberLong": "1561086894000"
                }
            },
            "voter": "stickybudz",
            "weight": 15
        },
        {
            "percent": 10000,
            "reputation": 0,
            "rshares": 332609337,
            "time": {
                "$date": {
                    "$numberLong": "1561086894000"
                }
            },
            "voter": "theloudpack",
            "weight": 14
        },
        {
            "percent": 10000,
            "reputation": 0,
            "rshares": 323573182,
            "time": {
                "$date": {
                    "$numberLong": "1561086894000"
                }
            },
            "voter": "flyinhigh",
            "weight": 14
        },
        {
            "percent": 10000,
            "reputation": 0,
            "rshares": 324490859,
            "time": {
                "$date": {
                    "$numberLong": "1561086897000"
                }
            },
            "voter": "reallyhigh",
            "weight": 16
        },
        {
            "percent": 10000,
            "reputation": 0,
            "rshares": 537942585,
            "time": {
                "$date": {
                    "$numberLong": "1561086897000"
                }
            },
            "voter": "totalnob",
            "weight": 27
        }
    ],
    "allow_curation_rewards": true,
    "allow_replies": true,
    "allow_votes": true,
    "author": "berniesanders",
    "author_reputation": 457666278531726,
    "author_rewards": 0,
    "beneficiaries": [],
    "body": "Don't pick a number someone has before you.\nOne comment/guess only.",
    "body_length": 0,
    "cashout_time": {
        "$date": {
            "$numberLong": "1561691673000"
        }
    },
    "category": "pickanumber",
    "children": 0,
    "children_abs_rshares": 86973406751,
    "created": {
        "$date": {
            "$numberLong": "1561086873000"
        }
    },
    "curator_payout_value": 0,
    "depth": 0,
    "id": 76774087,
    "json_metadata": {
        "tags": [
            "pickanumber"
        ],
        "app": "steemit/0.1",
        "format": "markdown"
    },
    "last_payout": {
        "$date": {
            "$numberLong": "0"
        }
    },
    "last_update": {
        "$date": {
            "$numberLong": "1561086873000"
        }
    },
    "max_accepted_payout": 1000000,
    "max_cashout_time": {
        "$date": {
            "$numberLong": "-1000"
        }
    },
    "net_rshares": 86973406751,
    "net_votes": 41,
    "parent_author": "",
    "parent_permlink": "pickanumber",
    "pending_payout_value": 0.050999999999999996725,
    "percent_steem_dollars": 10000,
    "permlink": "pick-a-number-1-200",
    "promoted": "0.000 SBD",
    "reblogged_by": [],
    "replies": [],
    "reward_weight": 10000,
    "root_author": "berniesanders",
    "root_permlink": "pick-a-number-1-200",
    "root_title": "Pick a Number 1-200",
    "scanned": {
        "$date": {
            "$numberLong": "1561086943231"
        }
    },
    "title": "Pick a Number 1-200",
    "total_payout_value": 0,
    "total_pending_payout_value": 0,
    "total_vote_weight": 296960,
    "url": "/pickanumber/@berniesanders/pick-a-number-1-200",
    "vote_rshares": 86973406751,
    "last_reply": {
        "$date": {
            "$numberLong": "1561147491000"
        }
    },
    "last_reply_by": "eii"
}
